[
    "Afghanistan",
    "Africa",
    "Albania",
    "Algeria",
    "American Samoa",
    "Americas",
    "Andorra",
    "Angola",
    "Anguilla",
    "Antigua and Barbuda",
    "Argentina",
    "Armenia",
    "Aruba",
    "Asia",
    "Australia",
    "Austria",
    "Azerbaijan",
    "Bahamas",
    "Bahrain",
    "Bangladesh",
    "Barbados",
    "Belarus",
    "Belgium",
    "Belize",
    "Benin",
    "Bermuda",
    "Bhutan",
    "Bolivia",
    "Bosnia and Herzegovina",
    "Botswana",
    "Brazil",
    "British Virgin Islands",
    "Brunei",
    "Bulgaria",
    "Burkina Faso",
    "Burundi",
    "Cambodia",
    "Cameroon",
    "Canada",
    "Cape Verde",
    "Caribbean",
    "Cayman Islands",
    "Central African Republic",
    "Central America",
    "Central Asia",
    "Chad",
    "Chile",
    "China",
    "Colombia",
    "Comoros",
    "Congo",
    "Cook Islands",
    "Costa Rica",
    "Croatia",
    "Cuba",
    "Cyprus",
    "Czechia",
    "Democratic Republic of Congo",
    "Denmark",
    "Djibouti",
    "Dominica",
    "Dominican Republic",
    "EU-27",
    "EU-28",
    "Eastern Africa",
    "Eastern Asia",
    "Eastern Europe",
    "Ecuador",
    "Egypt",
    "El Salvador",
    "England",
    "Equatorial Guinea",
    "Eritrea",
    "Estonia",
    "Eswatini",
    "Ethiopia",
    "Europe",
    "Falkland Islands",
    "Faroe Islands",
    "Fiji",
    "Finland",
    "France",
    "French Guyana",
    "French Polynesia",
    "Gabon",
    "Gambia",
    "Georgia",
    "Germany",
    "Ghana",
    "Gibraltar",
    "Greece",
    "Greenland",
    "Grenada",
    "Guadeloupe",
    "Guam",
    "Guatemala",
    "Guinea",
    "Guinea-Bissau",
    "Guyana",
    "Haiti",
    "Honduras",
    "Hungary",
    "Iceland",
    "India",
    "Indonesia",
    "Iran",
    "Iraq",
    "Ireland",
    "Isle of Man",
    "Israel",
    "Italy",
    "Jamaica",
    "Japan",
    "Jordan",
    "Kazakhstan",
    "Kenya",
    "Kiribati",
    "Kuwait",
    "Kyrgyzstan",
    "Land Locked Developing Countries",
    "Laos",
    "Latvia",
    "Least Developed Countries",
    "Lebanon",
    "Lesotho",
    "Liberia",
    "Libya",
    "Liechtenstein",
    "Lithuania",
    "Low Income Food Deficit Countries",
    "Luxembourg",
    "Madagascar",
    "Malawi",
    "Malaysia",
    "Maldives",
    "Mali",
    "Malta",
    "Marshall Islands",
    "Martinique",
    "Mauritania",
    "Mauritius",
    "Mayotte",
    "Mexico",
    "Micronesia",
    "Middle Africa",
    "Moldova",
    "Monaco",
    "Mongolia",
    "Montenegro",
    "Montserrat",
    "Morocco",
    "Mozambique",
    "Myanmar",
    "Namibia",
    "Nauru",
    "Nepal",
    "Net Food Importing Developing Countries",
    "Netherlands",
    "New Caledonia",
    "New Zealand",
    "Nicaragua",
    "Niger",
    "Nigeria",
    "Niue",
    "Norfolk Island",
    "North Korea",
    "North Macedonia",
    "Northern Africa",
    "Northern America",
    "Northern Europe",
    "Northern Mariana Islands",
    "Norway",
    "Oceania",
    "Oman",
    "Pakistan",
    "Palau",
    "Palestine",
    "Panama",
    "Papua New Guinea",
    "Paraguay",
    "Peru",
    "Philippines",
    "Pitcairn",
    "Poland",
    "Portugal",
    "Puerto Rico",
    "Qatar",
    "Romania",
    "Russia",
    "Rwanda",
    "Saint Helena",
    "Saint Kitts and Nevis",
    "Saint Lucia",
    "Saint Pierre and Miquelon",
    "Saint Vincent and the Grenadines",
    "Samoa",
    "San Marino",
    "Sao Tome and Principe",
    "Saudi Arabia",
    "Scotland",
    "Senegal",
    "Serbia",
    "Seychelles",
    "Sierra Leone",
    "Singapore",
    "Sint Maarten (Dutch part)",
    "Sint Maarten (French part)",
    "Slovakia",
    "Slovenia",
    "Small Island Developing States",
    "Solomon Islands",
    "Somalia",
    "South Africa",
    "South America",
    "South Korea",
    "South Sudan",
    "Southeastern Asia",
    "Southern Africa",
    "Southern Asia",
    "Southern Europe",
    "Spain",
    "Sri Lanka",
    "Sudan",
    "Suriname",
    "Sweden",
    "Switzerland",
    "Syria",
    "Taiwan",
    "Tajikistan",
    "Tanzania",
    "Thailand",
    "Timor",
    "Togo",
    "Tokelau",
    "Tonga",
    "Trinidad and Tobago",
    "Tunisia",
    "Turkey",
    "Turkmenistan",
    "Turks and Caicos Islands",
    "Tuvalu",
    "Uganda",
    "Ukraine",
    "United Arab Emirates",
    "United Kingdom",
    "United States",
    "United States Virgin Islands",
    "Uruguay",
    "Uzbekistan",
    "Vanuatu",
    "Vatican",
    "Venezuela",
    "Vietnam",
    "Wallis and Futuna Islands",
    "Western Africa",
    "Western Asia",
    "Western Europe",
    "Western Sahara",
    "World",
    "Yemen",
    "Zambia",
    "Zimbabwe"
]